k1_fQ11    =  2.19;
k1_fQ12    = -4.14;
k1_fQ13_15 =  1.48;
k1_fQ14    = -6.46;
k1_fQ16    = -2.47;
k1_fQ17    =  2.84;
k1_fQ2x    = -1.02;
k1_fQ3x_5x = -1.80;
k1_fQ4x    = -2.09;
k1_fQ6x    = -1.74;
k1_fQ7x    = -2.24;
k1_fQ81    = -2.87;
k1_fQ82    =  2.94;
k1_fQ83    = -2.44;
k1_fQ84    =  3.07;

hkick_SC11 =  0.00;
hkick_SC21 =  0.00;
hkick_SC22 =  0.00;
hkick_SC41 =  0.00;
hkick_SC42 =  0.00;
hkick_SC61 =  0.00;
hkick_SC62 =  0.00;
hkick_SC63 =  0.00;
hkick_SC71 =  0.00;
hkick_SC72 =  0.00;
hkick_SC81 =  0.00;
hkick_SC82 =  0.00;
hkick_SH83A=  0.00;
hkick_SC83 =  0.00;
hkick_SH84 =  0.00;

vkick_SC11 =  0.00;
vkick_SC21 =  0.00;
vkick_SC22 =  0.00;
vkick_SC41 =  0.00;
vkick_SC42 =  0.00;
vkick_SC61 =  0.00;
vkick_SC62 =  0.00;
vkick_SC63 =  0.00;
vkick_SC71 =  0.00;
vkick_SC72 =  0.00;
vkick_SC81 =  0.00;
vkick_SC82 =  0.00;
vkick_SC83 =  0.00;
