k1_fQ11    =  3.57;
k1_fQ12    = -3.64;
k1_fQ13_15 =  5.70;
k1_fQ14    = -5.16;
k1_fQ16    = -3.52;
k1_fQ17    =  3.13;
k1_fQ2x    =  1.23;
k1_fQ3x_5x =  3.37;
k1_fQ4x    =  2.21;
k1_fQ6x    =  1.48;
k1_fQ7x    =  2.30;
k1_fQ81    = -2.71;
k1_fQ82    =  2.51;
k1_fQ83    = -1.93;
k1_fQ84    =  2.83;

hkick_SC11 =  0.00;
hkick_SC21 =  0.00;
hkick_SC22 =  0.00;
hkick_SC41 =  0.00;
hkick_SC42 =  0.00;
hkick_SC61 =  0.00;
hkick_SC62 =  0.00;
hkick_SC63 =  0.00;
hkick_SC71 =  0.00;
hkick_SC72 =  0.00;
hkick_SC81 =  0.00;
hkick_SC82 =  0.00;
hkick_SH83A=  0.00;
hkick_SC83 =  0.00;
hkick_SH84 =  0.00;

vkick_SC11 =  0.00;
vkick_SC21 =  0.00;
vkick_SC22 =  0.00;
vkick_SC41 =  0.00;
vkick_SC42 =  0.00;
vkick_SC61 =  0.00;
vkick_SC62 =  0.00;
vkick_SC63 =  0.00;
vkick_SC71 =  0.00;
vkick_SC72 =  0.00;
vkick_SC81 =  0.00;
vkick_SC82 =  0.00;
vkick_SC83 =  0.00;
